Overview of comrad
…
path_to_output = NULL will return the output of the last
generation (only) instead of saving it.

Saved communities can be loaded from the csv with
readr::read_csv() as usual, but I also save some lines of
metadata in a header. For an easy loading, use
comrad::read_comrad_tbl() instead.

comrad_tbl <- comrad::read_comrad_tbl(path_to_file = temp_path_to_output)
comrad_tbl
#> # A tibble: 2,484 × 4
#>        t     z species ancestral_species
#>    <dbl> <dbl> <chr>   <chr>            
#>  1     0     0 #89ae8a <NA>             
#>  2     0     0 #89ae8a <NA>             
#>  3     0     0 #89ae8a <NA>             
#>  4     0     0 #89ae8a <NA>             
#>  5     0     0 #89ae8a <NA>             
#>  6     0     0 #89ae8a <NA>             
#>  7     0     0 #89ae8a <NA>             
#>  8     0     0 #89ae8a <NA>             
#>  9     0     0 #89ae8a <NA>             
#> 10     0     0 #89ae8a <NA>             
#> # … with 2,474 more rows
…
